[{
    "stores": ["Lumingo", "PlazaVea", "Promart", "Ripley", "Juntoz", "Linio", "Efe", "LaCuracao", "Saga", "Phantom"],
    "brands": ["NINTENDO", "PLAYSTATION", "SONY", "Otros", "BOMBERMAN"],
    "total_min_price": 27.9,
    "total_max_price": 1479.0
}, { 
    "BOMBERMAN - NINTENDO SWITCH": {
        "min-price": 125.0,
        "max-price": 158.0,
        "stores": {
            "Lumingo": "static/img/logos/lumingo.png"
        },
        "image": "https://www.lumingo.com/medias/0100424865-000000000004505880-0-c300Wx300H?context=bWFzdGVyfGltYWdlc3w3NTM0OHxpbWFnZS9wbmd8aW1hZ2VzL2hiMS9oZmEvODgzMTI0MTE1ODY4Ni5wbmd8MWJiMDRjYTI5YmQ4ZmQwY2U1NjFjOWFhNzE1YzkyZDQ2NmUzNjQ3YmY3ZTI3MTdlYjNlYzNkNWExOTJhNjBmNg",
        "compare": true
    }
}, {
    "VIDEOJUEGO PS4 SUPER BOMBERMAN RVIDEOJUEGO PS4 SUPER BOMBERMAN RVIDEOJUEGO PS4 SUPER BOMBERMAN RVIDEOJUEGO PS4 SUPER BOMBERMAN RVIDEOJUEGO PS4 SUPER BOMBERMAN R": {
        "min-price": 58.0,
        "max-price": 75.0,
        "stores": {
            "PlazaVea": "static/img/logos/plaza_vea.png",
            "Promart": "static/img/logos/promart.png",
            "Candy": "static/img/logos/candy.png",
            "Carsa": "static/img/logos/carsa.png",
            "Coolbox": "static/img/logos/coolbox.png",
            "Efe": "static/img/logos/efe.png",
            "Elektra": "static/img/logos/elektra.png",
            "El gallo": "static/img/logos/elgallo.png",
            "Freshmart": "static/img/logos/freshmart.png",
            "Hiraoka": "static/img/logos/hiraoka.png",
            "Ishop": "static/img/logos/ishop.png",
            "Juntoz": "static/img/logos/juntoz.png",
            "la curacao": "static/img/logos/lacuracao.png",
            "Linio": "static/img/logos/linio.png",
            "Locasa": "static/img/logos/locasa.png",
            "Loginstore": "static/img/logos/loginstore.png",
            "Lumingo": "static/img/logos/lumingo.png",
            "Maestro": "static/img/logos/maestro.png",
            "Magitech": "static/img/logos/magitech.png",
            "makro": "static/img/logos/makro.png",
            "Masgamers": "static/img/logos/masgamers.png",
            "Mass": "static/img/logos/mass.png",
            "Maxiahorro": "static/img/logos/maxiahorro.png",
            "Mayorsa": "static/img/logos/mayorsa.png",
            "Memorykings": "static/img/logos/memorykings.png",
            "Messajilhnos": "static/img/logos/mesajilhnos.png",
            "Metro": "static/img/logos/metro.png",
            "Nextlevel": "static/img/logos/nextlevel.png",
            "Oechsle": "static/img/logos/oechsle.png",
            "Oxxo": "static/img/logos/oxxo.png",
            "Paris": "static/img/logos/paris.png",
            "Perugame": "static/img/logos/perugame.png",
            "Phantom": "static/img/logos/phantom.png",
            "Platanitos": "static/img/logos/platanitos.png",
            "Plazaclick": "static/img/logos/Plazaclick.png",
            "Ripley": "static/img/logos/ripley.png",
            "Saga": "static/img/logos/saga.png",
            "Shopstar": "static/img/logos/shopstar.png",
            "Sodimac": "static/img/logos/sodimac.png",
            "Tambo": "static/img/logos/tambo.png",
            "Topitop": "static/img/logos/topitop.png",
            "Tottus": "static/img/logos/tottus.png",
            "Precio Uno": "static/img/logos/uno.png",
            "Vivanda": "static/img/logos/vivanda.png",
            "Wong": "static/img/logos/wong.png"
            
        },
        "image": "https://plazavea.vteximg.com.br/arquivos/ids/204317-220-220/20148300.jpg?v=636772047525630000",
        "compare": true
    }
}, {
    "SUPER BOMBERMAN R PS4": {
        "min-price": 79.9,
        "max-price": 167.2,
        "stores": {
            "Ripley": "static/img/logos/ripley.png",
            "Saga": "static/img/logos/saga.png"
        },
        "image": "https://home.ripley.com.pe/Attachment/WOP_5/2031212963188/2031212963188_2.jpg",
        "compare": true
    }
}, {
    "SUPER BOMBERMAN R EDITION SHINY PLAYSTATION 4": {
        "min-price": 27.9,
        "max-price": 169.0,
        "stores": {
            "Juntoz": "static/img/logos/juntoz.png"
        },
        "image": "https://juntozstgsrvproduction.blob.core.windows.net/default-blob-images/490x490_Super_Bomberman_R_PS4_1024x1024_850381.jpg",
        "compare": true
    }
}, {
    "SUPER BOMBERMAN R NINTENDO SWITCH": {
        "min-price": 47.0,
        "max-price": 239.0,
        "stores": {
            "Linio": "static/img/logos/linio.png",
            "Juntoz": "static/img/logos/juntoz.png",
            "Lumingo": "static/img/logos/lumingo.png"
        },
        "image": "http://i.linio.com/p/22ae22de42ea40c2d7cde506a9631c60-catalog.jpg",
        "compare": true
    }
}, {
    "PS4 JUEGO SUPER BOMBERMAN R": {
        "min-price": 99.5,
        "max-price": 99.5,
        "stores": {
            "Lumingo": "static/img/logos/lumingo.png"
        },
        "image": "https://www.lumingo.com/medias/0100508414-000000000004619225-0-c300Wx300H?context=bWFzdGVyfGltYWdlc3wxNjY3MHxpbWFnZS9qcGVnfGltYWdlcy9oYmQvaDA0LzkwMzc4MDQ5NjE4MjIuanBnfDdkNGJmMjA3ZTUzYTM5YWNjM2VlMWEyMThhNWVjNTQxZWI3NDNiZjU2NTFjYTdlOTFjMTJjNWEzMDIwMzM2ZWE",
        "compare": false
    }
}, {
    "SUPER BOMBERMAN R  NINTENDO SWITCH": {
        "min-price": 127.0,
        "max-price": 127.0,
        "stores": {
            "Lumingo": "static/img/logos/lumingo.png"
        },
        "image": "https://www.lumingo.com/medias/0100424865-000000000004521077-0-c300Wx300H?context=bWFzdGVyfGltYWdlc3wxOTEyMHxpbWFnZS9qcGVnfGltYWdlcy9oZDcvaGM1Lzg4NjgyODg1OTM5NTAuanBnfGU4NzdjOTQ5YWM5YjA2OTYxMzE0MmY1MWM0NjQ4MGJjZjQ4NmI1OGQ5YzAwZWUzMzUyMGNmYjU0YTI2NDAxYmM",
        "compare": false
    }
}, {
    "SUPER BOMBERMAN R EDITION SHINY PLAYSTATION 4 VIDEOJUEGO": {
        "min-price": 117.4,
        "max-price": 169.5,
        "stores": {
            "Lumingo": "static/img/logos/lumingo.png",
            "Linio": "static/img/logos/linio.png"
        },
        "image": "https://www.lumingo.com/medias/0100424865-000000000004528075-0-c300Wx300H?context=bWFzdGVyfGltYWdlc3w1NjMyMnxpbWFnZS9qcGVnfGltYWdlcy9oYWUvaGQ0Lzg4ODM5NTA5NDQyODYuanBnfDFmZTk1NWEzMWY1MDllZGEyZTM1NWNhZGJkZGM2N2Y5OWUwZDUxMDFmZTcxM2JkNzUwNTViYzQ4MjlhYTQ3Nzc",
        "compare": true
    }
}, {
    "NINTENDO SWITCH JUEGO SUPER BOMBERMAN R": {
        "min-price": 119.9,
        "max-price": 119.9,
        "stores": {
            "Lumingo": "static/img/logos/lumingo.png"
        },
        "image": "https://www.lumingo.com/medias/0100493972-000000000004595254-0-c300Wx300H?context=bWFzdGVyfGltYWdlc3wxMzQ2OXxpbWFnZS9qcGVnfGltYWdlcy9oOGYvaGY5Lzg5OTgyMTcyODU2NjIuanBnfGYxMmI4Y2Y2ZTRjMDYwM2RmYTI3MzM0NjRmYWE0Y2E5MzgyMjdmNDVjZDVhZTFlYWU2NDA0ZjUzM2QxN2U4NzU",
        "compare": false
    }
}, {
    "SUPER BOMBERMAN R - PLAYSTATION 4": {
        "min-price": 151.0,
        "max-price": 159.2,
        "stores": {
            "Efe": "static/img/logos/efe.png",
            "LaCuracao": "static/img/logos/lacuracao.png"
        },
        "image": "https://www.efe.com.pe/wcsstore/EFE/../efe_cat_as/200x310/JGO-PS4-BOMBERM_1.jpg",
        "compare": true
    }
}, {
    "SUPER BOMBERMAN R (PS4)": {
        "min-price": 169.9,
        "max-price": 169.9,
        "stores": {
            "Phantom": "static/img/logos/phantom.png"
        },
        "image": "https://phantom.pe/media/catalog/product/cache/1/small_image/200x200/9df78eab33525d08d6e5fb8d27136e95/s/u/super_bomberman_r_ps4.jpg",
        "compare": false
    }
}, {
    "SUPER BOMBERMAN R SWITCH": {
        "min-price": 234.0,
        "max-price": 234.0,
        "stores": {
            "Juntoz": "static/img/logos/juntoz.png"
        },
        "image": "https://juntozstgsrvproduction.blob.core.windows.net/default-blob-images/490x490_2aff04a4fe61324750f57a61c9d08f93-zoom_834365.jpg",
        "compare": false
    }
}, {
    "NINTENDO SWITCH NEON + SUPER BOMBERMAN R": {
        "min-price": 1219.0,
        "max-price": 1325.0,
        "stores": {
            "Juntoz": "static/img/logos/juntoz.png",
            "Linio": "static/img/logos/linio.png"
        },
        "image": "https://juntozstgsrvproduction.blob.core.windows.net/default-blob-images/490x490_909327c2e1bd7e5fe7930aa30fe2b82a-product_247025.jpg",
        "compare": true
    }
}, {
    "CONSOLA NINTENDO SWITCH NEON + JUEGO SUPER BOMBERMAN R": {
        "min-price": 1479.0,
        "max-price": 1479.0,
        "stores": {
            "Juntoz": "static/img/logos/juntoz.png"
        },
        "image": "https://juntozstgsrvproduction.blob.core.windows.net/default-blob-images/490x490_bomberman_457990.jpg",
        "compare": false
    }
}]
